1,1,1
1,1,1
2,1,2
3,3,3
1,1,1
4,4,4
5,1,5
5,5,5
1,1,1
1,1,1
5,5,5
5,5,5
1,1,1
3,3,3
5,5,5
3,7,3
1,1,1
6,6,6
1,1,1
7,7,7
1,1,1
6,6,6
6,6,6
7,7,7
4,4,4
5,5,5
3,3,3
6,6,6
1,1,1
1,1,1
1,5,5
3,3,3
1,1,1
1,1,1
7,7,7
3,3,3
6,6,6
1,9,1
1,1,1
1,1,1
5,1,5
2,2,2
1,1,1
6,6,6
1,1,1
6,6,6
1,1,1
1,1,1
1,1,1
1,1,1
5,5,5
1,1,1
5,5,5
1,1,1
4,4,4
6,6,6
7,7,7
3,3,3
5,5,5
5,5,5
2,2,2
6,6,6
5,5,5
3,3,3
1,1,1
3,3,3
1,1,1
5,5,5
1,1,1
1,9,1
4,4,4
6,6,6
2,2,2
1,4,4
2,2,2
2,2,2
1,1,1
5,5,5
1,1,1
2,2,2
6,6,6
3,3,3
2,2,2
5,5,5
4,4,4
4,4,4
1,1,1
4,4,4
5,5,5
5,5,5
6,6,6
5,5,5
5,5,5
1,1,1
1,1,1
1,1,1
5,1,5
3,3,3
1,1,1
6,6,6
2,2,2
4,4,4
5,5,5
5,5,5
6,6,6
1,1,1
5,5,5
6,6,6
6,6,6
2,2,2
5,5,2
1,2,2
7,7,7
5,2,2
5,5,5
7,7,7
6,6,6
5,5,5
1,1,1
1,1,1
1,1,1
1,1,1
6,6,6
4,4,4
5,5,5
3,5,3
6,6,6
4,4,4
2,2,2
1,5,1
1,1,1
1,2,1
1,1,1
5,5,5
6,6,6
1,1,1
1,1,1
1,1,1
1,1,1
7,7,7
1,5,1
5,1,5
6,6,6
6,6,6
1,1,1
7,7,7
7,7,7
5,5,5
2,2,2
6,6,6
6,6,6
6,6,6
4,4,4
6,4,6
6,6,6
6,6,6
6,6,6
6,6,6
6,6,6
1,1,1
8,8,8
1,1,1
2,2,2
1,1,1
5,5,5
3,3,3
2,2,2
5,5,5
2,2,2
3,3,3
2,2,2
4,4,4
2,2,2
3,3,3
2,2,2
4,4,4
6,6,6
1,1,1
1,1,1
1,1,1
3,3,3
2,2,2
1,1,1
5,5,5
2,2,2
1,1,1
4,4,4
8,8,8
6,6,6
6,6,6
3,3,3
2,2,2
1,1,1
3,3,3
6,6,6
7,7,7
6,6,6
5,5,5
6,6,6
6,6,6
6,6,6
7,7,7
6,6,6
7,7,7
6,6,6
7,7,7
3,3,3
2,2,2
1,1,1
2,2,2
6,6,6
3,3,3
6,5,5
6,6,6
6,6,6
2,2,2
6,6,6
5,5,5
1,1,1
6,6,6
3,3,3
6,6,6
6,6,6
2,2,2
7,7,7
2,2,2
3,3,3
2,2,2
6,6,6
7,7,7
7,7,7
3,3,3
6,6,6
4,4,4
6,6,6
6,6,6
6,6,6
4,4,4
6,6,6
8,8,8
6,6,6
6,6,6
6,6,6
7,7,7
5,5,5
6,6,6
6,6,6
3,3,3
2,2,2
5,5,5
4,4,4
6,6,6
6,6,6
2,2,2
6,6,6
6,6,6
4,4,4
1,1,1
7,7,7
6,6,6
7,7,7
7,7,7
6,6,6
5,5,5
3,3,3
3,3,3
5,5,5
5,5,5
7,7,7
5,5,5
7,7,7
6,6,6
7,7,7
2,2,2
2,2,2
6,6,6
6,6,6
5,5,5
6,6,6
7,7,7
2,2,2
6,6,6
4,4,4
6,6,6
3,3,3
7,7,7
6,6,6
2,2,2
6,6,6
6,6,6
6,6,6
6,6,6
6,6,6
6,6,6
6,6,6
7,7,7
2,9,2
2,2,2
4,4,4
2,2,2
3,3,3
3,3,3
3,3,3
3,3,3
3,3,3
3,3,3
1,1,1
1,1,1
7,7,7
2,2,2
1,1,1
1,1,1
1,1,1
1,1,1
1,1,1
6,6,6
6,6,6
6,6,6
6,6,6
6,6,6
6,6,6
2,2,2
7,7,7
2,2,2
1,5,5
2,2,2
2,2,2
2,2,2
3,3,3
8,8,8
7,7,7
1,1,1
7,7,7
2,2,2
2,2,2
2,2,2
1,1,1
2,2,2
3,3,3
1,1,1
1,9,1
1,1,1
5,5,5
4,4,4
4,4,4
4,4,4
4,4,4
4,4,4
4,4,4
4,4,4
4,4,4
4,4,4
4,4,4
4,4,4
4,4,4
4,4,4
4,4,4
4,4,4
2,2,2
1,1,1
2,2,2
3,3,3
8,8,8
1,1,1
8,8,8
8,8,8
8,8,8
8,8,8
5,5,5
3,3,3
3,3,3
3,3,3
3,3,3
3,3,3
3,3,3
3,3,3
4,4,4
4,4,4
4,4,4
4,4,4
4,4,4
4,4,4
7,7,7
5,5,5
5,5,5
5,5,5
3,3,3
5,5,5
5,5,5
5,5,5
5,5,5
5,1,1
6,6,6
1,1,1
4,4,4
3,3,3
7,7,7
7,7,7
7,7,7
5,5,5
7,7,7
7,7,7
7,7,7
7,7,7
5,5,5
5,5,5
3,3,3
5,5,5
5,5,5
6,6,6
7,7,7
7,7,7
7,7,7
7,7,7
8,8,8
7,7,7
3,3,3
7,7,7
7,7,7
8,8,8
3,3,3
2,2,2
2,2,2
5,5,5
6,6,6
6,6,6
2,2,2
2,2,2
2,2,2
5,5,5
3,3,3
2,2,2
2,2,2
4,4,4
4,4,4
5,5,5
6,6,6
3,3,3
6,6,6
5,5,5
1,1,1
4,4,4
4,4,4
4,4,4
1,1,1
1,1,1
6,6,6
1,1,1
4,4,4
4,4,4
1,1,1
6,6,6
4,4,4
4,4,4
3,3,3
7,7,7
3,3,3
1,1,1
1,1,1
3,3,3
3,3,3
8,8,8
8,8,8
3,3,3
8,8,8
3,3,3
6,6,6
1,1,1
3,3,3
6,6,6
3,3,3
3,3,3
4,4,4
4,4,4
1,1,1
6,6,6
4,4,4
6,6,6
4,4,4
6,6,6
6,6,6
3,3,3
4,4,4
5,5,5
7,7,7
2,2,2
1,1,1
3,3,3
1,1,1
8,8,8
