U102 1
U139 2
U33 3
U22 4
U26 5
U41 6
U42 7
U49 8
U29 9
U32 10
U17 11
U14 12
U130 13
U73 14
U47 15
U59 16
U91 17
U126 18
U110 19
U53 20
U65 21
U67 22
U72 23
U97 24
U71 25
U37 26
U4 27
U69 28
U6 29
U124 30
U109 31
U99 32
U23 33
U63 34
U86 35
U134 36
U18 37
U3 38
U54 39
U62 40
U76 41
U79 42
U90 43
U113 44
U138 45
U13 46
U48 47
U92 48
U123 49
U10 50
U19 51
U142 52
U106 53
U118 54
U112 55
U68 56
U141 57
U107 58
U1 59
U21 60
U140 61
